{
  "activity_logs": [
    {
      "activity_id": "1262046f-ea6e-423b-8bf7-3a985232f91b",
      "activity_type": "billable_metric.created",
      "activity_source": "api",
      "activity_object": {
        "foo": "bar",
        "baz": "qux"
      },
      "activity_object_changes": {
        "foo": "bar"
      },
      "user_email": "duane.wolf@goodwin-upton.example",
      "resource_id": "fd417abf-4273-42bf-bf93-fc3f93d4e987",
      "resource_type": "BillableMetric",
      "external_customer_id": "0c60aa34-74aa-470d-9d9c-409c79d05d56",
      "external_subscription_id": "b0a3fa29-5ba8-4363-b45e-0ea4c700acf8",
      "logged_at": "2025-05-05T15:06:21Z",
      "created_at": "2025-05-05T15:06:21Z"
    },
    {
      "activity_id": "6744ddec-3516-4e26-9c7e-dc3c30fc4e80",
      "activity_type": "plan.created",
      "activity_source": "api",
      "activity_object": {
        "foo": "bar-2",
        "baz": "qux-2"
      },
      "activity_object_changes": {
        "foo": "bar-2"
      },
      "user_email": "markus@deckow.example",
      "resource_id": "010f1c2f-b86e-447e-8a79-e4d8cd3f8e96",
      "resource_type": "Plan",
      "external_customer_id": "8f326a03-852b-408f-ba5b-d633420b59d6",
      "external_subscription_id": "8bdbe7c8-2817-4d93-b264-ce8417f09b2a",
      "logged_at": "2025-05-05T15:33:50Z",
      "created_at": "2025-05-05T15:33:50Z"
    }
  ],
  "meta": {
    "current_page": 1,
    "next_page": 2,
    "prev_page": null,
    "total_pages": 8,
    "total_count": 73
  }
}
