{
  "add_ons": [
    {
      "lago_id": "b7ab2926-1de8-4428-9bcd-779314ac1111",
      "name": "add_on_name",
      "code": "add_on_code",
      "amount_cents": 5000,
      "amount_currency": "USD",
      "description": "desc",
      "created_at": "2022-04-29T08:59:51Z"
    },
    {
      "lago_id": "b7ab2926-1de8-4428-9bcd-779314ac1222",
      "name": "add_on_name",
      "code": "add_on_code",
      "amount_cents": 7000,
      "amount_currency": "USD",
      "description": "desc",
      "created_at": "2022-04-29T08:59:51Z"
    }
  ],
  "meta": {
    "current_page": 1,
    "next_page": 2,
    "prev_page": null,
    "total_pages": 8,
    "total_count": 73
  }
}
