{
    "billing_entities": [
        {
            "lago_id": "123e4567-e89b-12d3-a456-426614174000",
            "code": "test-company-1",
            "name": "Test Company 1",
            "address_line1": "123 Test Street",
            "address_line2": "Suite 100",
            "city": "Test City",
            "state": "TS",
            "zipcode": "12345",
            "country": "US",
            "email": "test1@company.com",
            "phone": "+1234567890",
            "default_currency": "USD",
            "timezone": "UTC",
            "document_numbering": "per_customer",
            "document_number_prefix": "TEST1-",
            "finalize_zero_amount_invoice": true,
            "net_payment_term": 30,
            "eu_tax_management": false,
            "logo_url": "https://example.com/logo.png",
            "legal_name": "Test Company 1 Legal Name",
            "legal_number": "123456789",
            "invoice_footer": "Thank you for your business",
            "invoice_grace_period": 3,
            "document_locale": "en",
            "tax_identification_number": "TAX123456",
            "taxes": [
                {
                    "lago_id": "b7ab2926-1de8-4428-9bcd-779314ac129b",
                    "name": "tax_name",
                    "code": "tax_code",
                    "rate": 15.0,
                    "description": "tax_desc",
                    "created_at": "2022-04-29T08:59:51Z"
                }
            ],
            "email_settings": [
                "invoice.finalized",
                "payment_receipt.created"
            ],
            "is_default": true,
            "created_at": "2024-03-20T10:00:00Z",
            "updated_at": "2024-03-20T10:00:00Z"
        },
        {
            "lago_id": "123e4567-e89b-12d3-a456-426614174001",
            "code": "test-company-2",
            "name": "Test Company 2",
            "address_line1": "456 Test Avenue",
            "address_line2": "Suite 200",
            "city": "Test City",
            "state": "TS",
            "zipcode": "12345",
            "country": "FR",
            "email": "test2@company.com",
            "phone": "+1987654321",
            "default_currency": "EUR",
            "timezone": "UTC",
            "document_numbering": "per_billing_entity",
            "document_number_prefix": "TEST2-",
            "finalize_zero_amount_invoice": true,
            "net_payment_term": 30,
            "eu_tax_management": true,
            "logo_url": "https://example.com/logo_2.png",
            "legal_name": "Test Company 2 Legal Name",
            "legal_number": "987654321",
            "invoice_footer": "Thank you for your business",
            "invoice_grace_period": 3,
            "document_locale": "fr",
            "tax_identification_number": "TAX654321",
            "taxes": [
                {
                    "lago_id": "b7ab2926-1de8-4428-9bcd-779314ac129b",
                    "name": "tax_name",
                    "code": "tax_code",
                    "rate": 15.0,
                    "description": "tax_desc",
                    "created_at": "2022-04-29T08:59:51Z"
                },
                {
                    "lago_id": "986212f2-25dd-431c-a3cf-421588b40489",
                    "name": "tax_name_2",
                    "code": "tax_code_2",
                    "rate": 27.5,
                    "description": "tax_description_2",
                    "created_at": "2022-04-29T08:59:51Z"
                }
            ],
            "email_settings": [
                "invoice.finalized"
            ],
            "is_default": false,
            "created_at": "2024-03-20T10:00:00Z",
            "updated_at": "2024-03-20T10:00:00Z"
        }
    ],
    "meta": {
        "current_page": 1,
        "next_page": 2,
        "prev_page": null,
        "total_pages": 8,
        "total_count": 73
    }
}
