{
  "billable_metrics": [
    {
      "lago_id": "b7ab2926-1de8-4428-9bcd-779314ac1000",
      "name": "bm_name",
      "code": "bm_code",
      "description": "description",
      "aggregation_type": "sum_agg",
      "field_name": "amount_sum",
      "created_at": "2022-04-29T08:59:51Z",
      "group": {}
    },
    {
      "lago_id": "b7ab2926-1de8-4428-9bcd-779314a11111",
      "name": "bm2_name",
      "code": "bm2_code",
      "description": "description2",
      "aggregation_type": "sum_agg",
      "field_name": "amount_sum",
      "created_at": "2022-04-30T08:59:51Z",
      "group": {}
    }
  ],
  "meta": {
    "current_page": 1,
    "next_page": 2,
    "prev_page": null,
    "total_pages": 8,
    "total_count": 73
  }
}
