{
  "usage_periods": [
    {
      "from_datetime": "2022-07-01T00:00:00Z",
      "to_datetime": "2022-07-31T23:59:59Z",
      "issuing_date": "2022-08-01",
      "lago_invoice_id": "1a901a90-1a90-1a90-1a90-1a901a901a90",
      "currency": "EUR",
      "amount_cents": 123,
      "projected_amount_cents": 0,
      "total_amount_cents": 123,
      "taxes_amount_cents": 0,
      "charges_usage": [
        {
          "units": "1.0",
          "projected_units": "0.0",
          "events_count": 1,
          "amount_cents": 123,
          "projected_amount_cents": 0,
          "amount_currency": "EUR",
          "charge": {
            "lago_id": "1a901a90-1a90-1a90-1a90-1a901a901a90",
            "charge_model": "graduated"
          },
          "billable_metric": {
            "lago_id": "1a901a90-1a90-1a90-1a90-1a901a901a90",
            "name": "Usage metric",
            "code": "usage_metric",
            "aggregation_type": "sum"
          },
          "pricing_unit_details": {
            "amount_cents": 123,
            "short_name": "CR",
            "conversion_rate": 1.0
          },
          "filters": [
            {
              "units": "3.0",
              "projected_units": "0.0",
              "events_count": 1,
              "amount_cents": 123,
              "projected_amount_cents": 0,
              "values": {
                "country": [
                  "france"
                ]
              },
              "pricing_unit_details": {
                "amount_cents": 123,
                "short_name": "CR",
                "conversion_rate": 1.0
              }
            }
          ]
        }
      ]
    }
  ],
  "meta": {
    "current_page": 1,
    "next_page": 2,
    "prev_page": null,
    "total_pages": 2,
    "total_count": 49
  }
}
