{
  "invoices": [
    {
      "lago_id": "b7ab2926-1de8-4428-9bcd-779314ac1111",
      "sequential_id": 15,
      "number": "LAG-1234-001-002",
      "issuing_date": "2022-06-02",
      "invoice_type": "subscription",
      "version_number": 2,
      "status": "finalized",
      "payment_status": "failed",
      "currency": "EUR",
      "fees_amount_cents": 100,
      "vat_amount_cents": 20,
      "coupons_amount_cents": 0,
      "credit_notes_amount_cents": 0,
      "sub_total_vat_excluded_amount_cents": 100,
      "sub_total_vat_included_amount_cents": 120,
      "prepaid_credit_amount_cents": 0,
      "total_amount_cents": 120,
      "legacy": false,
      "amount_cents": 100,
      "credit_amount_cents": 0,
      "amount_currency": "EUR",
      "credit_amount_currency": "EUR",
      "vat_amount_currency": "EUR",
      "total_amount_currency": "EUR"
    },
    {
      "lago_id": "b7ab2926-1de8-4428-9bcd-779314ac1222",
      "sequential_id": 16,
      "number": "LAG-1234-001-003",
      "issuing_date": "2022-06-02",
      "invoice_type": "add_on",
      "version_number": 2,
      "status": "finalized",
      "payment_status": "failed",
      "currency": "EUR",
      "fees_amount_cents": 100,
      "vat_amount_cents": 20,
      "coupons_amount_cents": 0,
      "credit_notes_amount_cents": 0,
      "sub_total_vat_excluded_amount_cents": 100,
      "sub_total_vat_included_amount_cents": 120,
      "prepaid_credit_amount_cents": 0,
      "total_amount_cents": 120,
      "legacy": false,
      "amount_cents": 100,
      "credit_amount_cents": 0,
      "amount_currency": "EUR",
      "credit_amount_currency": "EUR",
      "vat_amount_currency": "EUR",
      "total_amount_currency": "EUR"
    }
  ],
  "meta": {
    "current_page": 1,
    "next_page": 2,
    "prev_page": null,
    "total_pages": 8,
    "total_count": 73
  }
}
