{
  "subscriptions": [
    {
      "lago_id": "b7ab2926-1de8-4428-9bcd-779314ac129b",
      "lago_customer_id": "99a6094e-199b-4101-896a-54e927ce7bd7",
      "external_customer_id": "5eb02857-a71e-4ea2-bcf9-57d3a41bc6ba",
      "canceled_at": "2022-04-29T08:59:51Z",
      "created_at": "2022-04-29T08:59:51Z",
      "plan_code": "eartha lynch",
      "started_at": "2022-04-29T08:59:51Z",
      "status": "active",
      "terminated_at": null
    }
  ],
  "meta": {
    "current_page": 1,
    "next_page": 2,
    "prev_page": null,
    "total_pages": 8,
    "total_count": 73
  }
}
