{
  "taxes": [
    {
      "lago_id": "b7ab2926-1de8-4428-9bcd-779314ac1111",
      "name": "tax_name_1",
      "code": "tax_code_1",
      "rate": 15.0,
      "customers_count": 0,
      "plans_count": 0,
      "charges_count": 0,
      "description": "tax_desc_1",
      "applied_to_organization": false,
      "created_at": "2022-04-29T08:59:51Z"
    },
    {
      "lago_id": "b7ab2926-1de8-4428-9bcd-779314ac1222",
      "name": "tax_name_2",
      "code": "tax_code_2",
      "rate": 20.0,
      "customers_count": 0,
      "plans_count": 0,
      "charges_count": 0,
      "description": "tax_desc_2",
      "applied_to_organization": false,
      "created_at": "2022-04-29T08:59:51Z"
    }
  ],
  "meta": {
    "current_page": 1,
    "next_page": 2,
    "prev_page": null,
    "total_pages": 8,
    "total_count": 73
  }
}
