{
  "alerts": [
    {
      "lago_id": "1a901a90-1a90-1a90-1a90-1a901a901a90",
      "lago_organization_id": "1a901a90-1a90-1a90-1a90-1a901a901a90",
      "external_subscription_id": null,
      "external_customer_id": "cus_0987654321",
      "lago_wallet_id": "1a901a90-1a90-1a90-1a90-1a901a901a90",
      "wallet_code": "wallet_code",
      "code": "wallet_balance_alert",
      "name": "Balance Amount Alert",
      "alert_type": "wallet_balance_amount",
      "direction": "increasing",
      "previous_value": 1000,
      "thresholds": [
        {
          "code": "warn",
          "recurring": false,
          "value": "99.0"
        }
      ],
      "billable_metric": null,
      "created_at": "2025-03-20T10:00:00Z",
      "last_processed_at": "2025-05-19T10:04:21Z"
    }
  ],
  "meta": {
    "current_page": 1,
    "next_page": 2,
    "prev_page": null,
    "total_pages": 4,
    "total_count": 70
  }
}
