{
  "wallet_transactions": [
    {
      "lago_id": "b7ab2926-1de8-4428-9bcd-779314ac1111",
      "lago_wallet_id": "12345",
      "status": "settled",
      "transaction_type": "inbound",
      "amount": "10",
      "credit_amount": "10",
      "settled_at": "2022-04-29T08:59:51Z",
      "created_at": "2022-04-29T08:59:51Z"
    },
    {
      "lago_id": "b7ab2926-1de8-4428-9bcd-779314ac1222",
      "lago_wallet_id": "12345",
      "status": "settled",
      "transaction_type": "inbound",
      "amount": "10",
      "credit_amount": "10",
      "settled_at": "2022-04-29T08:59:51Z",
      "created_at": "2022-04-29T08:59:51Z"
    }
  ],
  "meta": {
    "current_page": 1,
    "next_page": 2,
    "prev_page": null,
    "total_pages": 8,
    "total_count": 73
  }
}
