{
  "webhook_endpoints": [
    {
      "lago_id": "b7ab2926-1de8-4428-9bcd-779314ac129b",
      "lago_organization_id": "b7ab2926-1de8-4428-9bcd-779314ac129b",
      "webhook_url": "https://foo.bar",
      "signature_algo": "hmac",
      "name": null,
      "event_types": null,
      "created_at": "2022-04-29T08:59:51Z"
    },
    {
      "lago_id": "b7ab2926-1de8-4428-9bcd-779314ac129b",
      "lago_organization_id": "b7ab2926-1de8-4428-9bcd-779314ac129b",
      "webhook_url": "https://foo.bar",
      "signature_algo": "hmac",
      "name": null,
      "event_types": null,
      "created_at": "2022-04-29T08:59:51Z"
    }
  ],
  "meta": {
    "current_page": 1,
    "next_page": 2,
    "prev_page": null,
    "total_pages": 8,
    "total_count": 73
  }
}
